Project:	20210806_Beyza_MC_buffer_temperature_study											
												
Test:	0.6% MC-PBS 25 °C 20210805_Beyza_blind_study 2											
												
Result:	shear rate sweep 1											
												
Interval and data points:	1	12										
Interval data:	Point No.	Shear Rate	Shear Stress	Viscosity	Torque	Status	Temperature	Test Time	Time	Angular Velocity	Normal Force	Rotational Speed
												
		[1/s]	[Pa]	[mPa·s]	[mN·m]		[°C]	[s]	[s]	[rad/s]	[N]	[1/min]
	1	600	15.883	26.477	0.26523	Dy_auto	25	894.9	2		0.01	30.712
	2	842	20.605	24.471	0.34407	Dy_auto	25	896.9	4		0.01	43.107
	3	1.18E+03	26.619	22.523	0.44449	Dy_auto	25	898.9	6		0.02	60.506
	4	1.66E+03	33.895	20.432	0.56598	Dy_auto	25	900.9	8		0.03	84.927
	5	2.33E+03	42.812	18.387	0.71489	Dy_auto	25	902.9	10		0.04	119.21
	6	3.27E+03	53.688	16.427	0.89649	Dy_auto	25	904.9	12		0.06	167.32
	7	4.59E+03	66.956	14.595	1.118	Dy_auto	25	906.9	14		0.08	234.85
	8	6.44E+03	82.746	12.851	1.3817	Dy_auto	25	908.9	16		0.1	329.65
	9	9.04E+03	101.36	11.215	1.6926	Dy_auto	25	910.9	18		0.14	462.71
	10	1.27E+04	124.07	9.779	2.0717	Dy_auto	25	912.9	20		0.16	649.52
	11	1.78E+04	151.54	8.509	2.5304	Dy_auto	25	914.9	22		0.18	911.73
	12	2.50E+04	184.54	7.3824	3.0816	Dy_auto	25.01	916.9	24		0.19	1279.8
												
Interval and data points:	2	12										
Interval data:	Point No.	Shear Rate	Shear Stress	Viscosity	Torque	Status	Temperature	Test Time	Time	Angular Velocity	Normal Force	Rotational Speed
												
		[1/s]	[Pa]	[mPa·s]	[mN·m]		[°C]	[s]	[s]	[rad/s]	[N]	[1/min]
	1	2.50E+04	184.36	7.3748	3.0784	Dy_auto	25.01	918.9	26		0.18	1279.8
	2	1.78E+04	151.02	8.4799	2.5218	Dy_auto	25.02	920.9	28		0.17	911.76
	3	1.27E+04	123.64	9.7443	2.0645	Dy_auto	25.03	922.9	30		0.14	649.57
	4	9.04E+03	100.89	11.162	1.6848	Dy_auto	25.03	924.9	32		0.12	462.76
	5	6.44E+03	82.011	12.735	1.3694	Dy_auto	25.04	926.9	34		0.08	329.7
	6	4.59E+03	66.384	14.468	1.1085	Dy_auto	25.04	928.9	36		0.06	234.89
	7	3.27E+03	53.375	16.328	0.89127	Dy_auto	25.04	930.9	38		0.05	167.35
	8	2.33E+03	42.624	18.302	0.71175	Dy_auto	25.04	932.9	40		0.03	119.23
	9	1.66E+03	33.703	20.313	0.56277	Dy_auto	25.04	934.9	42		0.02	84.942
	10	1.18E+03	26.432	22.361	0.44137	Dy_auto	25.04	936.9	44		0.01	60.517
	11	842	20.5	24.342	0.34232	Dy_auto	25.04	938.9	46		0.01	43.115
	12	600	15.785	26.309	0.26359	Dy_auto	25.04	940.9	48		-0.01	30.717
												
Test:	0.6% MC-PBS 25 °C 20210805_Beyza_blind_study 3											
												
Result:	shear rate sweep 1											
												
Interval and data points:	1	12										
Interval data:	Point No.	Shear Rate	Shear Stress	Viscosity	Torque	Status	Temperature	Test Time	Time	Angular Velocity	Normal Force	Rotational Speed
												
		[1/s]	[Pa]	[mPa·s]	[mN·m]		[°C]	[s]	[s]	[rad/s]	[N]	[1/min]
	1	600	16.799	28.003	0.28051	Dy_auto	25	703.4	2		0	30.712
	2	842	21.574	25.622	0.36026	Dy_auto	25	705.4	4		0.02	43.108
	3	1.18E+03	27.514	23.281	0.45944	Dy_auto	25	707.4	6		0.03	60.505
	4	1.66E+03	34.922	21.051	0.58313	Dy_auto	25	709.4	8		0.02	84.927
	5	2.33E+03	44.105	18.942	0.73648	Dy_auto	25	711.4	10		0.03	119.21
	6	3.27E+03	55.344	16.934	0.92414	Dy_auto	25	713.4	12		0.05	167.32
	7	4.59E+03	69.048	15.052	1.153	Dy_auto	25	715.4	14		0.07	234.85
	8	6.44E+03	85.516	13.281	1.428	Dy_auto	25	717.4	16		0.1	329.65
	9	9.04E+03	105.02	11.62	1.7537	Dy_auto	25.01	719.4	18		0.13	462.71
	10	1.27E+04	128.42	10.122	2.1444	Dy_auto	25.01	721.4	20		0.16	649.53
	11	1.78E+04	156.75	8.8018	2.6175	Dy_auto	25.01	723.4	22		0.18	911.73
	12	2.50E+04	191.12	7.6453	3.1913	Dy_auto	25.01	725.4	24		0.2	1279.8
												
Interval and data points:	2	12										
Interval data:	Point No.	Shear Rate	Shear Stress	Viscosity	Torque	Status	Temperature	Test Time	Time	Angular Velocity	Normal Force	Rotational Speed
												
		[1/s]	[Pa]	[mPa·s]	[mN·m]		[°C]	[s]	[s]	[rad/s]	[N]	[1/min]
	1	2.50E+04	191.39	7.6563	3.196	Dy_auto	25.02	727.4	26		0.2	1279.8
	2	1.78E+04	157.3	8.8323	2.6266	Dy_auto	25.02	729.4	28		0.18	911.76
	3	1.27E+04	128.91	10.16	2.1526	Dy_auto	25.03	731.4	30		0.16	649.57
	4	9.04E+03	105.33	11.653	1.7588	Dy_auto	25.03	733.4	32		0.12	462.76
	5	6.44E+03	85.838	13.329	1.4333	Dy_auto	25.04	735.4	34		0.09	329.7
	6	4.59E+03	69.59	15.167	1.162	Dy_auto	25.04	737.4	36		0.07	234.89
	7	3.27E+03	56.052	17.147	0.93596	Dy_auto	25.04	739.4	38		0.06	167.35
	8	2.33E+03	44.835	19.252	0.74866	Dy_auto	25.04	741.4	40		0.03	119.23
	9	1.66E+03	35.554	21.429	0.59369	Dy_auto	25.04	743.4	42		0.02	84.942
	10	1.18E+03	27.947	23.642	0.46667	Dy_auto	25.04	745.4	44		0.01	60.517
	11	842	21.739	25.814	0.36301	Dy_auto	25.04	747.4	46		0	43.115
	12	600	16.758	27.931	0.27983	Dy_auto	25.04	749.4	48		0	30.717
												
Test:	0.6% MC-PBS 25 °C 20210805_Beyza_blind_study 1											
												
Result:	shear rate sweep 1											
												
Interval and data points:	1	12										
Interval data:	Point No.	Shear Rate	Shear Stress	Viscosity	Torque	Status	Temperature	Test Time	Time	Angular Velocity	Normal Force	Rotational Speed
												
		[1/s]	[Pa]	[mPa·s]	[mN·m]		[°C]	[s]	[s]	[rad/s]	[N]	[1/min]
	1	600	16.844	28.078	0.28126	Dy_auto	25	799.4	2		0.01	30.711
	2	842	21.623	25.679	0.36106	Dy_auto	25	801.4	4		0.01	43.108
	3	1.18E+03	27.509	23.276	0.45936	Dy_auto	25	803.4	6		0.01	60.506
	4	1.66E+03	35.031	21.117	0.58495	Dy_auto	25	805.4	8		0.03	84.926
	5	2.33E+03	44.22	18.991	0.73839	Dy_auto	25	807.4	10		0.04	119.21
	6	3.27E+03	55.378	16.944	0.92472	Dy_auto	25	809.4	12		0.06	167.32
	7	4.59E+03	69.008	15.043	1.1523	Dy_auto	25	811.4	14		0.08	234.85
	8	6.44E+03	85.261	13.241	1.4237	Dy_auto	25.01	813.4	16		0.11	329.65
	9	9.04E+03	104.52	11.564	1.7453	Dy_auto	25.01	815.4	18		0.13	462.71
	10	1.27E+04	127.75	10.069	2.1333	Dy_auto	25.01	817.4	20		0.16	649.53
	11	1.78E+04	155.67	8.7408	2.5993	Dy_auto	25.01	819.4	22		0.19	911.73
	12	2.50E+04	189.6	7.5848	3.166	Dy_auto	25.02	821.4	24		0.19	1279.8
												
Interval and data points:	2	12										
Interval data:	Point No.	Shear Rate	Shear Stress	Viscosity	Torque	Status	Temperature	Test Time	Time	Angular Velocity	Normal Force	Rotational Speed
												
		[1/s]	[Pa]	[mPa·s]	[mN·m]		[°C]	[s]	[s]	[rad/s]	[N]	[1/min]
	1	2.50E+04	189.63	7.586	3.1666	Dy_auto	25.02	823.4	26		0.19	1279.8
	2	1.78E+04	155.49	8.7306	2.5964	Dy_auto	25.03	825.4	28		0.18	911.78
	3	1.27E+04	127.37	10.039	2.1269	Dy_auto	25.04	827.4	30		0.15	649.57
	4	9.04E+03	104.01	11.507	1.7369	Dy_auto	25.04	829.4	32		0.12	462.76
	5	6.44E+03	84.664	13.147	1.4137	Dy_auto	25.05	831.4	34		0.09	329.7
	6	4.59E+03	68.585	14.948	1.1453	Dy_auto	25.05	833.4	36		0.07	234.89
	7	3.27E+03	55.198	16.886	0.92171	Dy_auto	25.05	835.4	38		0.04	167.35
	8	2.33E+03	44.094	18.934	0.7363	Dy_auto	25.05	837.4	40		0.03	119.23
	9	1.66E+03	34.926	21.05	0.5832	Dy_auto	25.06	839.4	42		0.02	84.942
	10	1.18E+03	27.502	23.265	0.45923	Dy_auto	25.05	841.4	44		0.02	60.517
	11	842	21.376	25.382	0.35694	Dy_auto	25.05	843.4	46		0.01	43.115
	12	600	16.519	27.532	0.27584	Dy_auto	25.05	845.4	48		-0.01	30.717
												
Test:	0.6% MC-PBS new_2 28 °C 20210806_Beyza_MC_buffer_temperature_study 1											
												
Result:	shear rate sweep 1											
												
Interval and data points:	1	12										
Interval data:	Point No.	Shear Rate	Shear Stress	Viscosity	Torque	Status	Temperature	Test Time	Time	Angular Velocity	Normal Force	Rotational Speed
												
		[1/s]	[Pa]	[mPa·s]	[mN·m]		[°C]	[s]	[s]	[rad/s]	[N]	[1/min]
	1	600	15.376	25.631	0.25675	Dy_auto	27.98	623.4	2		0.01	30.712
	2	842	20.282	24.087	0.33868	Dy_auto	27.98	625.4	4		0	43.108
	3	1.18E+03	26.142	22.119	0.43652	Dy_auto	27.98	627.4	6		0	60.506
	4	1.66E+03	32.844	19.798	0.54843	Dy_auto	27.98	629.4	8		0.02	84.927
	5	2.33E+03	41.215	17.7	0.68821	Dy_auto	27.98	631.4	10		0.04	119.21
	6	3.27E+03	51.727	15.827	0.86375	Dy_auto	27.98	633.4	12		0.05	167.32
	7	4.59E+03	64.693	14.102	1.0803	Dy_auto	27.99	635.4	14		0.08	234.85
	8	6.44E+03	80.475	12.498	1.3438	Dy_auto	27.99	637.4	16		0.1	329.65
	9	9.04E+03	99.625	11.023	1.6636	Dy_auto	27.99	639.4	18		0.13	462.71
	10	1.27E+04	122.38	9.6457	2.0435	Dy_auto	27.99	641.4	20		0.15	649.53
	11	1.78E+04	150.04	8.4247	2.5054	Dy_auto	27.99	643.4	22		0.17	911.75
	12	2.50E+04	183.42	7.3373	3.0628	Dy_auto	28	645.4	24		0.17	1279.8
												
Interval and data points:	2	12										
Interval data:	Point No.	Shear Rate	Shear Stress	Viscosity	Torque	Status	Temperature	Test Time	Time	Angular Velocity	Normal Force	Rotational Speed
												
		[1/s]	[Pa]	[mPa·s]	[mN·m]		[°C]	[s]	[s]	[rad/s]	[N]	[1/min]
	1	2.50E+04	183.65	7.3465	3.0666	Dy_auto	28	647.4	26		0.17	1279.8
	2	1.78E+04	150.58	8.4551	2.5145	Dy_auto	28.01	649.4	28		0.16	911.76
	3	1.27E+04	123.19	9.7093	2.0571	Dy_auto	28.02	651.4	30		0.14	649.57
	4	9.04E+03	100.38	11.105	1.6762	Dy_auto	28.02	653.4	32		0.12	462.76
	5	6.44E+03	81.465	12.65	1.3603	Dy_auto	28.03	655.4	34		0.08	329.7
	6	4.59E+03	65.809	14.343	1.0989	Dy_auto	28.03	657.4	36		0.06	234.89
	7	3.27E+03	52.798	16.152	0.88163	Dy_auto	28.04	659.4	38		0.04	167.35
	8	2.33E+03	42.049	18.056	0.70215	Dy_auto	28.04	661.4	40		0.03	119.23
	9	1.66E+03	33.243	20.036	0.55511	Dy_auto	28.04	663.4	42		0.01	84.942
	10	1.18E+03	26.016	22.009	0.43443	Dy_auto	28.03	665.4	44		0	60.517
	11	842	20.169	23.949	0.33678	Dy_auto	28.03	667.4	46		-0.01	43.115
	12	600	15.473	25.788	0.25837	Dy_auto	28.03	669.4	48		0	30.717
												
Test:	0.6% MC-PBS new_2 28 °C 20210806_Beyza_MC_buffer_temperature_study 2											
												
Result:	shear rate sweep 1											
												
Interval and data points:	1	12										
Interval data:	Point No.	Shear Rate	Shear Stress	Viscosity	Torque	Status	Temperature	Test Time	Time	Angular Velocity	Normal Force	Rotational Speed
												
		[1/s]	[Pa]	[mPa·s]	[mN·m]		[°C]	[s]	[s]	[rad/s]	[N]	[1/min]
	1	600	14.641	24.405	0.24447	Dy_auto	27.99	837.4	2		0	30.712
	2	842	19.112	22.698	0.31915	Dy_auto	27.99	839.4	4		0.01	43.107
	3	1.18E+03	24.673	20.876	0.412	Dy_auto	27.99	841.4	6		0.02	60.506
	4	1.66E+03	31.649	19.079	0.52848	Dy_auto	27.99	843.4	8		0.02	84.926
	5	2.33E+03	40.215	17.271	0.67152	Dy_auto	27.99	845.4	10		0.04	119.21
	6	3.27E+03	50.662	15.501	0.84597	Dy_auto	27.99	847.4	12		0.04	167.32
	7	4.59E+03	63.411	13.823	1.0588	Dy_auto	28	849.4	14		0.07	234.85
	8	6.44E+03	78.808	12.239	1.316	Dy_auto	27.99	851.4	16		0.08	329.65
	9	9.04E+03	97.017	10.734	1.62	Dy_auto	27.99	853.4	18		0.11	462.71
	10	1.27E+04	118.96	9.3766	1.9865	Dy_auto	28	855.4	20		0.13	649.53
	11	1.78E+04	145.3	8.1591	2.4263	Dy_auto	28	857.4	22		0.14	911.73
	12	2.50E+04	175.23	7.0098	2.926	Dy_auto	28	859.4	24		0.07	1279.8
												
Interval and data points:	2	12										
Interval data:	Point No.	Shear Rate	Shear Stress	Viscosity	Torque	Status	Temperature	Test Time	Time	Angular Velocity	Normal Force	Rotational Speed
												
		[1/s]	[Pa]	[mPa·s]	[mN·m]		[°C]	[s]	[s]	[rad/s]	[N]	[1/min]
	1	2.50E+04	173.87	6.9552	2.9033	Dy_auto	28.01	861.4	26		0	1279.8
	2	1.78E+04	142.42	7.9969	2.3782	Dy_auto	28.01	863.4	28		0.08	911.78
	3	1.27E+04	116.51	9.1829	1.9455	Dy_auto	28.02	865.4	30		0.08	649.54
	4	9.04E+03	95.004	10.51	1.5864	Dy_auto	28.02	867.4	32		0.05	462.76
	5	6.44E+03	77.073	11.968	1.287	Dy_auto	28.02	869.4	34		0.03	329.7
	6	4.59E+03	62.224	13.562	1.039	Dy_auto	28.03	871.4	36		0.01	234.89
	7	3.27E+03	49.944	15.279	0.83398	Dy_auto	28.03	873.4	38		-0.01	167.35
	8	2.33E+03	39.715	17.053	0.66317	Dy_auto	28.03	875.4	40		-0.02	119.23
	9	1.66E+03	31.281	18.853	0.52234	Dy_auto	28.03	877.4	42		-0.04	84.942
	10	1.18E+03	24.627	20.834	0.41123	Dy_auto	28.02	879.4	44		-0.05	60.516
	11	842	19.088	22.666	0.31874	Dy_auto	28.02	881.4	46		-0.05	43.114
	12	600	14.69	24.484	0.2453	Dy_auto	28.02	883.4	48		-0.05	30.717
												
Test:	0.6% MC-PBS 28 °C new_2 20210806_Beyza_MC_buffer_temperature_study 1											
												
Result:	shear rate sweep 1											
												
Interval and data points:	1	12										
Interval data:	Point No.	Shear Rate	Shear Stress	Viscosity	Torque	Status	Temperature	Test Time	Time	Angular Velocity	Normal Force	Rotational Speed
												
		[1/s]	[Pa]	[mPa·s]	[mN·m]		[°C]	[s]	[s]	[rad/s]	[N]	[1/min]
	1	600	14.213	23.692	0.23733	Dy_auto	27.99	828.6	2		0.01	30.712
	2	842	18.553	22.034	0.30979	Dy_auto	27.99	830.6	4		0.01	43.107
	3	1.18E+03	24.058	20.356	0.40172	Dy_auto	27.99	832.6	6		0.01	60.506
	4	1.66E+03	30.889	18.62	0.51578	Dy_auto	27.99	834.6	8		0.03	84.927
	5	2.33E+03	39.345	16.897	0.65699	Dy_auto	27.98	836.6	10		0.04	119.21
	6	3.27E+03	49.665	15.196	0.82932	Dy_auto	27.98	838.6	12		0.05	167.32
	7	4.59E+03	62.171	13.553	1.0382	Dy_auto	27.97	840.6	14		0.07	234.85
	8	6.44E+03	77.352	12.013	1.2916	Dy_auto	27.97	842.6	16		0.1	329.65
	9	9.04E+03	95.379	10.553	1.5927	Dy_auto	27.98	844.6	18		0.12	462.71
	10	1.27E+04	117.22	9.2392	1.9573	Dy_auto	27.98	846.6	20		0.15	649.5
	11	1.78E+04	143.88	8.0791	2.4025	Dy_auto	27.98	848.6	22		0.17	911.71
	12	2.50E+04	176.44	7.0583	2.9463	Dy_auto	27.99	850.6	24		0.17	1279.8
												
Interval and data points:	2	12										
Interval data:	Point No.	Shear Rate	Shear Stress	Viscosity	Torque	Status	Temperature	Test Time	Time	Angular Velocity	Normal Force	Rotational Speed
												
		[1/s]	[Pa]	[mPa·s]	[mN·m]		[°C]	[s]	[s]	[rad/s]	[N]	[1/min]
	1	2.50E+04	176.63	7.0658	2.9494	Dy_auto	27.99	852.6	26		0.17	1279.8
	2	1.78E+04	144.19	8.0964	2.4078	Dy_auto	28	854.6	28		0.16	911.76
	3	1.27E+04	117.64	9.2714	1.9643	Dy_auto	28.01	856.6	30		0.14	649.57
	4	9.04E+03	95.786	10.597	1.5995	Dy_auto	28.02	858.6	32		0.11	462.76
	5	6.44E+03	77.51	12.036	1.2943	Dy_auto	28.03	860.6	34		0.08	329.7
	6	4.59E+03	62.446	13.61	1.0427	Dy_auto	28.04	862.6	36		0.06	234.89
	7	3.27E+03	49.941	15.278	0.83392	Dy_auto	28.04	864.6	38		0.04	167.35
	8	2.33E+03	39.648	17.024	0.66205	Dy_auto	28.05	866.6	40		0.03	119.23
	9	1.66E+03	31.201	18.805	0.52101	Dy_auto	28.05	868.6	42		0.02	84.942
	10	1.18E+03	24.334	20.586	0.40633	Dy_auto	28.05	870.6	44		0.01	60.517
	11	842	18.796	22.318	0.31386	Dy_auto	28.06	872.6	46		0	43.115
	12	600	14.378	23.964	0.24009	Dy_auto	28.06	874.6	48		0	30.717
												
Test:	0.6% MC-PBS new_2 31 °C 20210806_Beyza_MC_buffer_temperature_study 1											
												
Result:	shear rate sweep 1											
												
Interval and data points:	1	12										
Interval data:	Point No.	Shear Rate	Shear Stress	Viscosity	Torque	Status	Temperature	Test Time	Time	Angular Velocity	Normal Force	Rotational Speed
												
		[1/s]	[Pa]	[mPa·s]	[mN·m]		[°C]	[s]	[s]	[rad/s]	[N]	[1/min]
	1	600	16.186	26.981	0.27027	Dy_auto	31.01	742.7	2		0	30.712
	2	842	20.472	24.313	0.34184	Dy_auto	31.01	744.7	4		0.02	43.108
	3	1.18E+03	26.29	22.244	0.43899	Dy_auto	31.01	746.7	6		0.02	60.506
	4	1.66E+03	33.522	20.208	0.55977	Dy_auto	31.01	748.7	8		0.02	84.927
	5	2.33E+03	42.477	18.243	0.7093	Dy_auto	31.01	750.7	10		0.04	119.21
	6	3.27E+03	53.292	16.306	0.88988	Dy_auto	31.01	752.7	12		0.04	167.32
	7	4.59E+03	66.705	14.541	1.1139	Dy_auto	31.01	754.7	14		0.07	234.85
	8	6.44E+03	82.607	12.829	1.3794	Dy_auto	31.01	756.7	16		0.09	329.65
	9	9.04E+03	101.69	11.251	1.698	Dy_auto	31	758.7	18		0.13	462.71
	10	1.27E+04	125.16	9.8654	2.09	Dy_auto	31.01	760.7	20		0.15	649.53
	11	1.78E+04	153.69	8.6304	2.5664	Dy_auto	31.01	762.7	22		0.17	911.71
	12	2.50E+04	188.54	7.5421	3.1483	Dy_auto	31.01	764.7	24		0.18	1279.8
												
Interval and data points:	2	12										
Interval data:	Point No.	Shear Rate	Shear Stress	Viscosity	Torque	Status	Temperature	Test Time	Time	Angular Velocity	Normal Force	Rotational Speed
												
		[1/s]	[Pa]	[mPa·s]	[mN·m]		[°C]	[s]	[s]	[rad/s]	[N]	[1/min]
	1	2.50E+04	189.18	7.568	3.159	Dy_auto	31.02	766.7	26		0.18	1279.8
	2	1.78E+04	155.54	8.7334	2.5972	Dy_auto	31.02	768.7	28		0.17	911.75
	3	1.27E+04	127.47	10.047	2.1286	Dy_auto	31.03	770.7	30		0.15	649.57
	4	9.04E+03	103.87	11.491	1.7345	Dy_auto	31.04	772.7	32		0.11	462.76
	5	6.44E+03	84.436	13.111	1.4099	Dy_auto	31.04	774.7	34		0.09	329.7
	6	4.59E+03	68.324	14.891	1.1409	Dy_auto	31.04	776.7	36		0.07	234.89
	7	3.27E+03	54.893	16.793	0.91661	Dy_auto	31.05	778.7	38		0.05	167.35
	8	2.33E+03	43.725	18.775	0.73014	Dy_auto	31.05	780.7	40		0.03	119.23
	9	1.66E+03	34.533	20.813	0.57665	Dy_auto	31.05	782.7	42		0.03	84.942
	10	1.18E+03	27.045	22.879	0.4516	Dy_auto	31.05	784.7	44		0.01	60.517
	11	842	21.002	24.938	0.35069	Dy_auto	31.04	786.7	46		0.01	43.115
	12	600	16.15	26.917	0.26968	Dy_auto	31.04	788.7	48		0	30.717
												
Test:	0.6% MC-PBS new_2 31 °C 20210806_Beyza_MC_buffer_temperature_study 2											
												
Result:	shear rate sweep 1											
												
Interval and data points:	1	12										
Interval data:	Point No.	Shear Rate	Shear Stress	Viscosity	Torque	Status	Temperature	Test Time	Time	Angular Velocity	Normal Force	Rotational Speed
												
		[1/s]	[Pa]	[mPa·s]	[mN·m]		[°C]	[s]	[s]	[rad/s]	[N]	[1/min]
	1	600	14.363	23.942	0.23983	Dy_auto	31	798.4	2		0.01	30.712
	2	842	18.656	22.156	0.31152	Dy_auto	31	800.4	4		0.02	43.107
	3	1.18E+03	23.963	20.276	0.40014	Dy_auto	30.99	802.4	6		0.02	60.506
	4	1.66E+03	30.639	18.47	0.51162	Dy_auto	30.99	804.4	8		0.02	84.926
	5	2.33E+03	38.967	16.735	0.65068	Dy_auto	30.99	806.4	10		0.03	119.2
	6	3.27E+03	49.113	15.027	0.82011	Dy_auto	30.99	808.4	12		0.05	167.32
	7	4.59E+03	61.588	13.425	1.0284	Dy_auto	30.99	810.4	14		0.07	234.85
	8	6.44E+03	76.493	11.88	1.2773	Dy_auto	30.99	812.4	16		0.09	329.65
	9	9.04E+03	94.734	10.482	1.5819	Dy_auto	30.99	814.4	18		0.12	462.71
	10	1.27E+04	116.32	9.1686	1.9424	Dy_auto	31	816.4	20		0.15	649.53
	11	1.78E+04	142.74	8.0153	2.3835	Dy_auto	31	818.4	22		0.17	911.71
	12	2.50E+04	174.57	6.9833	2.915	Dy_auto	31	820.4	24		0.16	1279.8
												
Interval and data points:	2	12										
Interval data:	Point No.	Shear Rate	Shear Stress	Viscosity	Torque	Status	Temperature	Test Time	Time	Angular Velocity	Normal Force	Rotational Speed
												
		[1/s]	[Pa]	[mPa·s]	[mN·m]		[°C]	[s]	[s]	[rad/s]	[N]	[1/min]
	1	2.50E+04	174.33	6.9737	2.911	Dy_auto	31.01	822.4	26		0.16	1279.8
	2	1.78E+04	142.47	7.9995	2.3789	Dy_auto	31.02	824.4	28		0.15	911.76
	3	1.27E+04	116.22	9.16	1.9406	Dy_auto	31.03	826.4	30		0.13	649.54
	4	9.04E+03	94.331	10.436	1.5752	Dy_auto	31.04	828.4	32		0.11	462.76
	5	6.44E+03	76.228	11.837	1.2729	Dy_auto	31.05	830.4	34		0.09	329.7
	6	4.59E+03	61.275	13.355	1.0232	Dy_auto	31.05	832.4	36		0.06	234.89
	7	3.27E+03	48.914	14.964	0.81678	Dy_auto	31.06	834.4	38		0.05	167.35
	8	2.33E+03	38.832	16.674	0.64843	Dy_auto	31.06	836.4	40		0.02	119.23
	9	1.66E+03	30.462	18.36	0.50866	Dy_auto	31.06	838.4	42		0.03	84.942
	10	1.18E+03	23.792	20.127	0.39729	Dy_auto	31.06	840.4	44		0.01	60.517
	11	842	18.366	21.808	0.30668	Dy_auto	31.06	842.4	46		0.01	43.114
	12	600	14.086	23.476	0.23521	Dy_auto	31.06	844.4	48		-0.01	30.717
												
Test:	0.6% MC-PBS new_2 31 °C 20210806_Beyza_MC_buffer_temperature_study 3											
												
Result:	shear rate sweep 1											
												
Interval and data points:	1	12										
Interval data:	Point No.	Shear Rate	Shear Stress	Viscosity	Torque	Status	Temperature	Test Time	Time	Angular Velocity	Normal Force	Rotational Speed
												
		[1/s]	[Pa]	[mPa·s]	[mN·m]		[°C]	[s]	[s]	[rad/s]	[N]	[1/min]
	1	600	13.639	22.736	0.22775	Dy_auto	31	917	2		0.01	30.712
	2	842	17.814	21.156	0.29746	Dy_auto	31	919	4		0.01	43.108
	3	1.18E+03	23.221	19.648	0.38776	Dy_auto	31	921	6		0.01	60.506
	4	1.66E+03	29.776	17.949	0.4972	Dy_auto	31	923	8		0.02	84.927
	5	2.33E+03	37.846	16.254	0.63197	Dy_auto	31	925	10		0.03	119.21
	6	3.27E+03	47.801	14.626	0.7982	Dy_auto	31	927	12		0.04	167.32
	7	4.59E+03	59.961	13.071	1.0012	Dy_auto	31	929	14		0.06	234.85
	8	6.44E+03	74.641	11.592	1.2464	Dy_auto	31	931	16		0.09	329.65
	9	9.04E+03	92.107	10.191	1.538	Dy_auto	31	933	18		0.11	462.71
	10	1.27E+04	113.23	8.9245	1.8907	Dy_auto	31	935	20		0.13	649.53
	11	1.78E+04	138.95	7.8022	2.3202	Dy_auto	31.01	937	22		0.15	911.73
	12	2.50E+04	170.13	6.8058	2.8409	Dy_auto	31.01	939	24		0.15	1279.8
												
Interval and data points:	2	12										
Interval data:	Point No.	Shear Rate	Shear Stress	Viscosity	Torque	Status	Temperature	Test Time	Time	Angular Velocity	Normal Force	Rotational Speed
												
		[1/s]	[Pa]	[mPa·s]	[mN·m]		[°C]	[s]	[s]	[rad/s]	[N]	[1/min]
	1	2.50E+04	169.81	6.7931	2.8356	Dy_auto	31.01	941	26		0.14	1279.8
	2	1.78E+04	138.29	7.7652	2.3093	Dy_auto	31.02	943	28		0.14	911.76
	3	1.27E+04	112.53	8.8687	1.879	Dy_auto	31.03	945	30		0.12	649.57
	4	9.04E+03	91.38	10.109	1.5259	Dy_auto	31.04	947	32		0.1	462.76
	5	6.44E+03	73.728	11.448	1.2311	Dy_auto	31.04	949	34		0.07	329.7
	6	4.59E+03	59.192	12.901	0.98841	Dy_auto	31.04	951	36		0.05	234.89
	7	3.27E+03	47.145	14.422	0.78723	Dy_auto	31.05	953	38		0.03	167.35
	8	2.33E+03	37.294	16.014	0.62274	Dy_auto	31.05	955	40		0.02	119.23
	9	1.66E+03	29.263	17.637	0.48865	Dy_auto	31.05	957	42		0.01	84.942
	10	1.18E+03	22.72	19.221	0.37939	Dy_auto	31.05	959	44		0	60.517
	11	842	17.479	20.755	0.29188	Dy_auto	31.05	961	46		-0.01	43.114
	12	600	13.331	22.218	0.2226	Dy_auto	31.05	963	48		0	30.717
												
Test:	0.6% MC-PBS new_2 34 °C 20210806_Beyza_MC_buffer_temperature_study 1											
												
Result:	shear rate sweep 1											
												
Interval and data points:	1	12										
Interval data:	Point No.	Shear Rate	Shear Stress	Viscosity	Torque	Status	Temperature	Test Time	Time	Angular Velocity	Normal Force	Rotational Speed
												
		[1/s]	[Pa]	[mPa·s]	[mN·m]		[°C]	[s]	[s]	[rad/s]	[N]	[1/min]
	1	600	15.151	25.256	0.253	Dy_auto	34.02	795.7	2		0	30.712
	2	842	19.563	23.234	0.32667	Dy_auto	34.02	797.7	4		0	43.107
	3	1.18E+03	25.235	21.352	0.42138	Dy_auto	34.02	799.7	6		0	60.506
	4	1.66E+03	32.341	19.496	0.54004	Dy_auto	34.02	801.7	8		0.01	84.927
	5	2.33E+03	40.841	17.54	0.68198	Dy_auto	34.01	803.7	10		0.03	119.21
	6	3.27E+03	51.385	15.723	0.85804	Dy_auto	34.01	805.7	12		0.04	167.32
	7	4.59E+03	64.566	14.075	1.0781	Dy_auto	34	807.7	14		0.07	234.85
	8	6.44E+03	80.483	12.499	1.3439	Dy_auto	33.99	809.7	16		0.1	329.65
	9	9.04E+03	99.449	11.003	1.6606	Dy_auto	33.98	811.7	18		0.12	462.71
	10	1.27E+04	122.46	9.6524	2.0449	Dy_auto	33.98	813.7	20		0.14	649.53
	11	1.78E+04	150.12	8.4292	2.5067	Dy_auto	33.97	815.7	22		0.16	911.73
	12	2.50E+04	181.76	7.2708	3.035	Dy_auto	33.96	817.7	24		0.1	1279.8
												
Interval and data points:	2	12										
Interval data:	Point No.	Shear Rate	Shear Stress	Viscosity	Torque	Status	Temperature	Test Time	Time	Angular Velocity	Normal Force	Rotational Speed
												
		[1/s]	[Pa]	[mPa·s]	[mN·m]		[°C]	[s]	[s]	[rad/s]	[N]	[1/min]
	1	2.50E+04	181.2	7.2486	3.0257	Dy_auto	33.96	819.7	26		0.07	1279.8
	2	1.78E+04	148.28	8.3257	2.476	Dy_auto	33.96	821.7	28		0.06	911.78
	3	1.27E+04	121.5	9.5766	2.0289	Dy_auto	33.96	823.7	30		0.04	649.54
	4	9.04E+03	99.192	10.974	1.6563	Dy_auto	33.96	825.7	32		0.01	462.76
	5	6.44E+03	82.039	12.739	1.3699	Dy_auto	33.96	827.7	34		0	329.7
	6	4.59E+03	66.753	14.549	1.1147	Dy_auto	33.96	829.7	36		-0.02	234.89
	7	3.27E+03	54.01	16.523	0.90188	Dy_auto	33.96	831.7	38		-0.11	167.35
	8	2.33E+03	43.239	18.567	0.72202	Dy_auto	33.96	833.7	40		-0.06	119.23
	9	1.66E+03	34.328	20.689	0.57321	Dy_auto	33.96	835.7	42		-0.09	84.944
	10	1.18E+03	26.837	22.703	0.44813	Dy_auto	33.96	837.7	44		-0.11	60.518
	11	842	20.88	24.794	0.34866	Dy_auto	33.96	839.7	46		-0.1	43.114
	12	600	16.353	27.256	0.27307	Dy_auto	33.96	841.7	48		-0.06	30.716
												
Test:	0.6% MC-PBS new_2 34 °C 20210806_Beyza_MC_buffer_temperature_study 1											
												
Result:	shear rate sweep 1											
												
Interval and data points:	1	12										
Interval data:	Point No.	Shear Rate	Shear Stress	Viscosity	Torque	Status	Temperature	Test Time	Time	Angular Velocity	Normal Force	Rotational Speed
												
		[1/s]	[Pa]	[mPa·s]	[mN·m]		[°C]	[s]	[s]	[rad/s]	[N]	[1/min]
	1	600	15.568	25.951	0.25996	Dy_auto	34	789.9	2		0.01	30.712
	2	842	19.959	23.703	0.33328	Dy_auto	34	791.9	4		0.01	43.108
	3	1.18E+03	25.607	21.667	0.42759	Dy_auto	34	793.9	6		0.01	60.506
	4	1.66E+03	32.845	19.8	0.54846	Dy_auto	34	795.9	8		0.03	84.926
	5	2.33E+03	41.022	17.618	0.685	Dy_auto	34	797.9	10		0.04	119.21
	6	3.27E+03	52.209	15.975	0.87179	Dy_auto	34	799.9	12		0.06	167.32
	7	4.59E+03	65.58	14.296	1.0951	Dy_auto	34	801.9	14		0.07	234.85
	8	6.44E+03	79.528	12.351	1.328	Dy_auto	34	803.9	16		0.1	329.65
	9	9.04E+03	98.842	10.936	1.6505	Dy_auto	34	805.9	18		0.12	462.71
	10	1.27E+04	120.36	9.4871	2.0099	Dy_auto	34	807.9	20		0.14	649.52
	11	1.78E+04	147.68	8.2925	2.466	Dy_auto	34	809.9	22		0.17	911.73
	12	2.50E+04	181.13	7.2456	3.0245	Dy_auto	34	811.9	24		0.18	1279.8
												
Interval and data points:	2	12										
Interval data:	Point No.	Shear Rate	Shear Stress	Viscosity	Torque	Status	Temperature	Test Time	Time	Angular Velocity	Normal Force	Rotational Speed
												
		[1/s]	[Pa]	[mPa·s]	[mN·m]		[°C]	[s]	[s]	[rad/s]	[N]	[1/min]
	1	2.50E+04	181.64	7.266	3.033	Dy_auto	34	813.9	26		0.17	1279.8
	2	1.78E+04	148.69	8.3487	2.4828	Dy_auto	34.01	815.9	28		0.16	911.78
	3	1.27E+04	121.45	9.572	2.028	Dy_auto	34.02	817.9	30		0.14	649.57
	4	9.04E+03	98.811	10.931	1.65	Dy_auto	34.02	819.9	32		0.12	462.76
	5	6.44E+03	80.074	12.434	1.3371	Dy_auto	34.03	821.9	34		0.09	329.7
	6	4.59E+03	64.575	14.074	1.0783	Dy_auto	34.03	823.9	36		0.06	234.89
	7	3.27E+03	51.767	15.836	0.86441	Dy_auto	34.03	825.9	38		0.04	167.35
	8	2.33E+03	41.261	17.717	0.68898	Dy_auto	34.03	827.9	40		0.03	119.23
	9	1.66E+03	32.69	19.702	0.54586	Dy_auto	34.03	829.9	42		0.02	84.942
	10	1.18E+03	25.548	21.613	0.4266	Dy_auto	34.03	831.9	44		0.02	60.516
	11	842	19.824	23.54	0.33103	Dy_auto	34.03	833.9	46		0.01	43.114
	12	600	15.318	25.529	0.25578	Dy_auto	34.03	835.9	48		0	30.717
												
Test:	0.6% MC-PBS new_2 34 °C 20210806_Beyza_MC_buffer_temperature_study 2											
												
Result:	shear rate sweep 1											
												
Interval and data points:	1	12										
Interval data:	Point No.	Shear Rate	Shear Stress	Viscosity	Torque	Status	Temperature	Test Time	Time	Angular Velocity	Normal Force	Rotational Speed
												
		[1/s]	[Pa]	[mPa·s]	[mN·m]		[°C]	[s]	[s]	[rad/s]	[N]	[1/min]
	1	600	14.43	24.055	0.24096	Dy_auto	34	1136	2		0	30.712
	2	842	18.603	22.093	0.31064	Dy_auto	34	1138	4		0.01	43.109
	3	1.18E+03	24.16	20.442	0.40343	Dy_auto	34	1140	6		0.02	60.506
	4	1.66E+03	30.709	18.512	0.51278	Dy_auto	34	1142	8		0.03	84.926
	5	2.33E+03	38.848	16.684	0.64869	Dy_auto	34	1144	10		0.04	119.21
	6	3.27E+03	49	14.993	0.81822	Dy_auto	34	1146	12		0.05	167.32
	7	4.59E+03	61.525	13.412	1.0274	Dy_auto	33.99	1148	14		0.06	234.85
	8	6.44E+03	76.629	11.901	1.2796	Dy_auto	33.99	1150	16		0.09	329.65
	9	9.04E+03	94.811	10.49	1.5832	Dy_auto	33.98	1152	18		0.11	462.71
	10	1.27E+04	116.74	9.2016	1.9494	Dy_auto	33.97	1154	20		0.13	649.53
	11	1.78E+04	143.51	8.0586	2.3964	Dy_auto	33.96	1156	22		0.15	911.73
	12	2.50E+04	175.88	7.0357	2.9369	Dy_auto	33.95	1158	24		0.14	1279.8
												
Interval and data points:	2	12										
Interval data:	Point No.	Shear Rate	Shear Stress	Viscosity	Torque	Status	Temperature	Test Time	Time	Angular Velocity	Normal Force	Rotational Speed
												
		[1/s]	[Pa]	[mPa·s]	[mN·m]		[°C]	[s]	[s]	[rad/s]	[N]	[1/min]
	1	2.50E+04	176.17	7.0471	2.9417	Dy_auto	33.95	1160	26		0.14	1279.8
	2	1.78E+04	144.06	8.089	2.4055	Dy_auto	33.94	1162	28		0.15	911.73
	3	1.27E+04	117.41	9.2539	1.9606	Dy_auto	33.94	1164	30		0.13	649.57
	4	9.04E+03	95.316	10.545	1.5916	Dy_auto	33.94	1166	32		0.1	462.76
	5	6.44E+03	77.048	11.964	1.2866	Dy_auto	33.94	1168	34		0.08	329.7
	6	4.59E+03	61.993	13.511	1.0352	Dy_auto	33.94	1170	36		0.06	234.89
	7	3.27E+03	49.388	15.109	0.82469	Dy_auto	33.94	1172	38		0.05	167.35
	8	2.33E+03	39.265	16.86	0.65565	Dy_auto	33.93	1174	40		0.03	119.23
	9	1.66E+03	30.838	18.586	0.51494	Dy_auto	33.92	1176	42		0.03	84.941
	10	1.18E+03	24.125	20.41	0.40285	Dy_auto	33.91	1178	44		0.01	60.516
	11	842	18.551	22.028	0.30977	Dy_auto	33.9	1180	46		0.01	43.114
	12	600	14.363	23.939	0.23984	Dy_auto	33.89	1182	48		0	30.717
												
Test:	0.6% MC-PBS new_2 34 °C 20210806_Beyza_MC_buffer_temperature_study 3											
												
Result:	shear rate sweep 1											
												
Interval and data points:	1	12										
Interval data:	Point No.	Shear Rate	Shear Stress	Viscosity	Torque	Status	Temperature	Test Time	Time	Angular Velocity	Normal Force	Rotational Speed
												
		[1/s]	[Pa]	[mPa·s]	[mN·m]		[°C]	[s]	[s]	[rad/s]	[N]	[1/min]
	1	600	12.501	20.838	0.20874	Dy_auto	34.04	906.1	2		0.01	30.712
	2	842	16.471	19.561	0.27504	Dy_auto	34.04	908.1	4		0.01	43.107
	3	1.18E+03	21.536	18.222	0.35962	Dy_auto	34.04	910.1	6		0.01	60.506
	4	1.66E+03	27.899	16.818	0.46587	Dy_auto	34.04	912.1	8		0.02	84.926
	5	2.33E+03	35.909	15.422	0.59963	Dy_auto	34.04	914.1	10		0.03	119.2
	6	3.27E+03	45.764	14.003	0.76418	Dy_auto	34.04	916.1	12		0.04	167.32
	7	4.59E+03	57.414	12.515	0.95871	Dy_auto	34.04	918.1	14		0.06	234.85
	8	6.44E+03	71.661	11.129	1.1966	Dy_auto	34.04	920.1	16		0.09	329.65
	9	9.04E+03	88.759	9.8205	1.4821	Dy_auto	34.04	922.1	18		0.11	462.71
	10	1.27E+04	109.39	8.6221	1.8266	Dy_auto	34.04	924.1	20		0.13	649.5
	11	1.78E+04	134.71	7.5642	2.2495	Dy_auto	34.04	926.1	22		0.15	911.75
	12	2.50E+04	165.67	6.6273	2.7663	Dy_auto	34.04	928.1	24		0.15	1279.7
												
Interval and data points:	2	12										
Interval data:	Point No.	Shear Rate	Shear Stress	Viscosity	Torque	Status	Temperature	Test Time	Time	Angular Velocity	Normal Force	Rotational Speed
												
		[1/s]	[Pa]	[mPa·s]	[mN·m]		[°C]	[s]	[s]	[rad/s]	[N]	[1/min]
	1	2.50E+04	165.84	6.6343	2.7693	Dy_auto	34.05	930.1	26		0.15	1279.8
	2	1.78E+04	135	7.5803	2.2543	Dy_auto	34.05	932.1	28		0.14	911.78
	3	1.27E+04	109.76	8.6503	1.8327	Dy_auto	34.06	934.1	30		0.12	649.57
	4	9.04E+03	88.977	9.8435	1.4858	Dy_auto	34.06	936.1	32		0.1	462.76
	5	6.44E+03	71.65	11.126	1.1964	Dy_auto	34.06	938.1	34		0.08	329.7
	6	4.59E+03	57.442	12.52	0.95919	Dy_auto	34.07	940.1	36		0.06	234.89
	7	3.27E+03	45.615	13.954	0.76168	Dy_auto	34.07	942.1	38		0.04	167.35
	8	2.33E+03	35.929	15.428	0.59995	Dy_auto	34.07	944.1	40		0.03	119.23
	9	1.66E+03	28.077	16.922	0.46884	Dy_auto	34.07	946.1	42		0.02	84.942
	10	1.18E+03	21.737	18.389	0.36297	Dy_auto	34.06	948.1	44		0.01	60.517
	11	842	16.668	19.792	0.27832	Dy_auto	34.06	950.1	46		0	43.114
	12	600	12.677	21.128	0.21168	Dy_auto	34.06	952.1	48		0.01	30.717
												
Test:	0.6% MC-PBS new_2 34 °C 20210806_Beyza_MC_buffer_temperature_study 4											
												
Result:	shear rate sweep 1											
												
Interval and data points:	1	12										
Interval data:	Point No.	Shear Rate	Shear Stress	Viscosity	Torque	Status	Temperature	Test Time	Time	Angular Velocity	Normal Force	Rotational Speed
												
		[1/s]	[Pa]	[mPa·s]	[mN·m]		[°C]	[s]	[s]	[rad/s]	[N]	[1/min]
	1	600	12.727	21.215	0.21252	Dy_auto	34.01	872.7	2		0.01	30.712
	2	842	16.679	19.809	0.27852	Dy_auto	34.02	874.7	4		0.01	43.107
	3	1.18E+03	21.785	18.433	0.36377	Dy_auto	34.02	876.7	6		0.01	60.506
	4	1.66E+03	28.046	16.906	0.46831	Dy_auto	34.02	878.7	8		0.02	84.926
	5	2.33E+03	35.948	15.439	0.60028	Dy_auto	34.02	880.7	10		0.03	119.21
	6	3.27E+03	45.611	13.956	0.76163	Dy_auto	34.02	882.7	12		0.04	167.32
	7	4.59E+03	57.292	12.489	0.95668	Dy_auto	34.02	884.7	14		0.06	234.85
	8	6.44E+03	70.905	11.012	1.184	Dy_auto	34.02	886.7	16		0.09	329.65
	9	9.04E+03	87.957	9.7318	1.4687	Dy_auto	34.02	888.7	18		0.11	462.71
	10	1.27E+04	108.45	8.5483	1.811	Dy_auto	34.02	890.7	20		0.13	649.53
	11	1.78E+04	133.65	7.5044	2.2317	Dy_auto	34.02	892.7	22		0.15	911.73
	12	2.50E+04	164.56	6.583	2.7479	Dy_auto	34.02	894.7	24		0.15	1279.8
												
Interval and data points:	2	12										
Interval data:	Point No.	Shear Rate	Shear Stress	Viscosity	Torque	Status	Temperature	Test Time	Time	Angular Velocity	Normal Force	Rotational Speed
												
		[1/s]	[Pa]	[mPa·s]	[mN·m]		[°C]	[s]	[s]	[rad/s]	[N]	[1/min]
	1	2.50E+04	164.78	6.5916	2.7515	Dy_auto	34.02	896.7	26		0.14	1279.8
	2	1.78E+04	134.05	7.5268	2.2384	Dy_auto	34.03	898.7	28		0.14	911.76
	3	1.27E+04	108.85	8.5787	1.8175	Dy_auto	34.04	900.7	30		0.12	649.57
	4	9.04E+03	88.212	9.7589	1.473	Dy_auto	34.04	902.7	32		0.1	462.76
	5	6.44E+03	70.906	11.01	1.184	Dy_auto	34.05	904.7	34		0.07	329.7
	6	4.59E+03	56.754	12.37	0.94769	Dy_auto	34.05	906.7	36		0.06	234.89
	7	3.27E+03	45.082	13.792	0.7528	Dy_auto	34.05	908.7	38		0.04	167.35
	8	2.33E+03	35.582	15.279	0.59416	Dy_auto	34.05	910.7	40		0.03	119.23
	9	1.66E+03	27.97	16.858	0.46704	Dy_auto	34.05	912.7	42		0.02	84.941
	10	1.18E+03	21.805	18.446	0.3641	Dy_auto	34.05	914.7	44		0.01	60.516
	11	842	16.615	19.729	0.27744	Dy_auto	34.05	916.7	46		0	43.114
	12	600	12.571	20.952	0.20992	Dy_auto	34.04	918.7	48		0.01	30.717
												
Test:	0.6% MC-PBS new_2 34 °C 20210806_Beyza_MC_buffer_temperature_study 5											
												
Result:	shear rate sweep 1											
												
Interval and data points:	1	12										
Interval data:	Point No.	Shear Rate	Shear Stress	Viscosity	Torque	Status	Temperature	Test Time	Time	Angular Velocity	Normal Force	Rotational Speed
												
		[1/s]	[Pa]	[mPa·s]	[mN·m]		[°C]	[s]	[s]	[rad/s]	[N]	[1/min]
	1	600	12.877	21.465	0.21502	Dy_auto	33.99	866.1	2		0.01	30.712
	2	842	16.893	20.063	0.28209	Dy_auto	33.99	868.1	4		0.01	43.107
	3	1.18E+03	21.992	18.608	0.36723	Dy_auto	34	870.1	6		0.02	60.506
	4	1.66E+03	28.486	17.172	0.47566	Dy_auto	34	872.1	8		0.03	84.926
	5	2.33E+03	36.499	15.675	0.60947	Dy_auto	33.99	874.1	10		0.03	119.21
	6	3.27E+03	46.323	14.174	0.77352	Dy_auto	33.99	876.1	12		0.05	167.32
	7	4.59E+03	58.48	12.748	0.97651	Dy_auto	34	878.1	14		0.07	234.85
	8	6.44E+03	72.604	11.276	1.2124	Dy_auto	34	880.1	16		0.09	329.65
	9	9.04E+03	89.811	9.9368	1.4997	Dy_auto	34	882.1	18		0.11	462.71
	10	1.27E+04	110.35	8.6979	1.8427	Dy_auto	34	884.1	20		0.13	649.53
	11	1.78E+04	135.93	7.6329	2.2698	Dy_auto	34	886.1	22		0.14	911.71
	12	2.50E+04	167.02	6.6815	2.789	Dy_auto	34.01	888.1	24		0.13	1279.8
												
Interval and data points:	2	12										
Interval data:	Point No.	Shear Rate	Shear Stress	Viscosity	Torque	Status	Temperature	Test Time	Time	Angular Velocity	Normal Force	Rotational Speed
												
		[1/s]	[Pa]	[mPa·s]	[mN·m]		[°C]	[s]	[s]	[rad/s]	[N]	[1/min]
	1	2.50E+04	167.51	6.7008	2.7971	Dy_auto	34.01	890.1	26		0.13	1279.8
	2	1.78E+04	136.56	7.6678	2.2803	Dy_auto	34.02	892.1	28		0.13	911.76
	3	1.27E+04	111.11	8.7573	1.8554	Dy_auto	34.03	894.1	30		0.11	649.57
	4	9.04E+03	90.313	9.9914	1.5081	Dy_auto	34.03	896.1	32		0.09	462.76
	5	6.44E+03	72.84	11.311	1.2163	Dy_auto	34.04	898.1	34		0.08	329.7
	6	4.59E+03	58.635	12.78	0.97911	Dy_auto	34.04	900.1	36		0.05	234.89
	7	3.27E+03	46.826	14.325	0.78192	Dy_auto	34.04	902.1	38		0.03	167.35
	8	2.33E+03	37.191	15.97	0.62103	Dy_auto	34.05	904.1	40		0.03	119.23
	9	1.66E+03	29.122	17.552	0.48628	Dy_auto	34.04	906.1	42		0.01	84.942
	10	1.18E+03	22.486	19.022	0.37547	Dy_auto	34.05	908.1	44		0.01	60.517
	11	842	17.243	20.475	0.28793	Dy_auto	34.05	910.1	46		0	43.115
	12	600	13.079	21.799	0.2184	Dy_auto	34.04	912.1	48		0	30.716
												
Test:	0.6% MC-PBS new_2 37 °C 20210806_Beyza_MC_buffer_temperature_study 8											
												
Result:	shear rate sweep 1											
												
Interval and data points:	1	12										
Interval data:	Point No.	Shear Rate	Shear Stress	Viscosity	Torque	Status	Temperature	Test Time	Time	Angular Velocity	Normal Force	Rotational Speed
												
		[1/s]	[Pa]	[mPa·s]	[mN·m]		[°C]	[s]	[s]	[rad/s]	[N]	[1/min]
	1	600	13.187	21.983	0.22021	Dy_auto	36.99	1196	2		0	30.712
	2	842	17.201	20.428	0.28722	Dy_auto	37	1198	4		0	43.108
	3	1.18E+03	22.247	18.823	0.37148	Dy_auto	37	1200	6		0	60.506
	4	1.66E+03	28.562	17.217	0.47693	Dy_auto	37	1202	8		0.02	84.928
	5	2.33E+03	36.406	15.635	0.60791	Dy_auto	37	1204	10		0.03	119.21
	6	3.27E+03	46.173	14.128	0.77101	Dy_auto	37	1206	12		0.04	167.32
	7	4.59E+03	58.325	12.714	0.97392	Dy_auto	37	1208	14		0.05	234.85
	8	6.44E+03	73.249	11.376	1.2231	Dy_auto	37	1210	16		0.07	329.65
	9	9.04E+03	91.097	10.079	1.5212	Dy_auto	37.01	1212	18		0.08	462.71
	10	1.27E+04	112.63	8.878	1.8808	Dy_auto	37.01	1214	20		0.09	649.5
	11	1.78E+04	138.69	7.7877	2.3159	Dy_auto	37.01	1216	22		0.1	911.73
	12	2.50E+04	168.46	6.7389	2.8129	Dy_auto	37.01	1218	24		0.03	1279.8
												
Interval and data points:	2	12										
Interval data:	Point No.	Shear Rate	Shear Stress	Viscosity	Torque	Status	Temperature	Test Time	Time	Angular Velocity	Normal Force	Rotational Speed
												
		[1/s]	[Pa]	[mPa·s]	[mN·m]		[°C]	[s]	[s]	[rad/s]	[N]	[1/min]
	1	2.50E+04	166.56	6.6631	2.7813	Dy_auto	37.02	1220	26		-0.17	1279.8
	2	1.78E+04	136.57	7.6685	2.2804	Dy_auto	37.03	1222	28		0.02	911.73
	3	1.27E+04	111.73	8.8061	1.8657	Dy_auto	37.03	1224	30		0.04	649.57
	4	9.04E+03	91.018	10.069	1.5198	Dy_auto	37.04	1226	32		0.04	462.76
	5	6.44E+03	73.737	11.45	1.2313	Dy_auto	37.04	1228	34		0.02	329.69
	6	4.59E+03	59.229	12.909	0.98903	Dy_auto	37.05	1230	36		0	234.89
	7	3.27E+03	47.133	14.419	0.78704	Dy_auto	37.05	1232	38		-0.02	167.35
	8	2.33E+03	37.17	15.961	0.62067	Dy_auto	37.05	1234	40		-0.03	119.23
	9	1.66E+03	28.907	17.423	0.4827	Dy_auto	37.05	1236	42		-0.04	84.942
	10	1.18E+03	22.32	18.882	0.37271	Dy_auto	37.05	1238	44		-0.03	60.517
	11	842	17.055	20.252	0.28479	Dy_auto	37.05	1240	46		-0.04	43.114
	12	600	12.977	21.629	0.21669	Dy_auto	37.04	1242	48		-0.04	30.717
												
Test:	0.6% MC-PBS new_2 37 °C 20210806_Beyza_MC_buffer_temperature_study 5											
												
Result:	shear rate sweep 1											
												
Interval and data points:	1	12										
Interval data:	Point No.	Shear Rate	Shear Stress	Viscosity	Torque	Status	Temperature	Test Time	Time	Angular Velocity	Normal Force	Rotational Speed
												
		[1/s]	[Pa]	[mPa·s]	[mN·m]		[°C]	[s]	[s]	[rad/s]	[N]	[1/min]
	1	600	13.168	21.95	0.21988	Dy_auto	37.01	901.1	2		0	30.712
	2	842	17.217	20.448	0.2875	Dy_auto	37.01	903.1	4		0.01	43.107
	3	1.18E+03	22.397	18.95	0.37398	Dy_auto	37.01	905.1	6		0.02	60.505
	4	1.66E+03	28.82	17.373	0.48125	Dy_auto	37.01	907.1	8		0.02	84.929
	5	2.33E+03	36.04	15.478	0.6018	Dy_auto	37.01	909.1	10		0.03	119.2
	6	3.27E+03	46.062	14.094	0.76916	Dy_auto	37.01	911.1	12		0.04	167.32
	7	4.59E+03	57.575	12.551	0.9614	Dy_auto	37.01	913.1	14		0.05	234.85
	8	6.44E+03	71.919	11.169	1.2009	Dy_auto	37.01	915.1	16		0.08	329.65
	9	9.04E+03	88.9	9.8361	1.4845	Dy_auto	37.01	917.1	18		0.1	462.71
	10	1.27E+04	109.59	8.6385	1.83	Dy_auto	37.01	919.1	20		0.12	649.48
	11	1.78E+04	135.24	7.594	2.2583	Dy_auto	37.01	921.1	22		0.14	911.73
	12	2.50E+04	166.6	6.6644	2.7819	Dy_auto	37.01	923.1	24		0.13	1279.8
												
Interval and data points:	2	12										
Interval data:	Point No.	Shear Rate	Shear Stress	Viscosity	Torque	Status	Temperature	Test Time	Time	Angular Velocity	Normal Force	Rotational Speed
												
		[1/s]	[Pa]	[mPa·s]	[mN·m]		[°C]	[s]	[s]	[rad/s]	[N]	[1/min]
	1	2.50E+04	167.07	6.6834	2.7898	Dy_auto	37.02	925.1	26		0.13	1279.8
	2	1.78E+04	136.24	7.6496	2.2749	Dy_auto	37.02	927.1	28		0.13	911.76
	3	1.27E+04	110.94	8.7434	1.8524	Dy_auto	37.03	929.1	30		0.11	649.57
	4	9.04E+03	90.006	9.9572	1.5029	Dy_auto	37.04	931.1	32		0.09	462.76
	5	6.44E+03	72.488	11.256	1.2104	Dy_auto	37.04	933.1	34		0.06	329.7
	6	4.59E+03	58.198	12.684	0.9718	Dy_auto	37.04	935.1	36		0.04	234.89
	7	3.27E+03	46.395	14.193	0.77472	Dy_auto	37.04	937.1	38		0.02	167.35
	8	2.33E+03	36.782	15.794	0.6142	Dy_auto	37.04	939.1	40		0.01	119.23
	9	1.66E+03	28.956	17.452	0.48352	Dy_auto	37.04	941.1	42		-0.01	84.941
	10	1.18E+03	22.491	19.027	0.37557	Dy_auto	37.04	943.1	44		-0.02	60.517
	11	842	17.464	20.738	0.29162	Dy_auto	37.04	945.1	46		-0.01	43.115
	12	600	13.329	22.216	0.22258	Dy_auto	37.04	947.1	48		-0.02	30.717
												
Test:	0.6% MC-PBS new_2 37 °C 20210806_Beyza_MC_buffer_temperature_study 4											
												
Result:	shear rate sweep 1											
												
Interval and data points:	1	12										
Interval data:	Point No.	Shear Rate	Shear Stress	Viscosity	Torque	Status	Temperature	Test Time	Time	Angular Velocity	Normal Force	Rotational Speed
												
		[1/s]	[Pa]	[mPa·s]	[mN·m]		[°C]	[s]	[s]	[rad/s]	[N]	[1/min]
	1	600	12.947	21.583	0.2162	Dy_auto	37.02	877.8	2		0.02	30.712
	2	842	16.762	19.907	0.27989	Dy_auto	37.02	879.8	4		0.01	43.108
	3	1.18E+03	21.931	18.556	0.3662	Dy_auto	37.02	881.8	6		0.01	60.507
	4	1.66E+03	28.271	17.042	0.47208	Dy_auto	37.02	883.8	8		0.03	84.926
	5	2.33E+03	36.218	15.554	0.60477	Dy_auto	37.02	885.8	10		0.03	119.21
	6	3.27E+03	46.012	14.078	0.76832	Dy_auto	37.02	887.8	12		0.04	167.32
	7	4.59E+03	57.255	12.481	0.95606	Dy_auto	37.02	889.8	14		0.06	234.85
	8	6.44E+03	72.901	11.322	1.2173	Dy_auto	37.02	891.8	16		0.09	329.64
	9	9.04E+03	88.221	9.7609	1.4731	Dy_auto	37.02	893.8	18		0.11	462.71
	10	1.27E+04	108.91	8.5844	1.8186	Dy_auto	37.02	895.8	20		0.13	649.53
	11	1.78E+04	133.76	7.5106	2.2335	Dy_auto	37.02	897.8	22		0.14	911.73
	12	2.50E+04	164.95	6.5986	2.7543	Dy_auto	37.03	899.8	24		0.14	1279.7
												
Interval and data points:	2	12										
Interval data:	Point No.	Shear Rate	Shear Stress	Viscosity	Torque	Status	Temperature	Test Time	Time	Angular Velocity	Normal Force	Rotational Speed
												
		[1/s]	[Pa]	[mPa·s]	[mN·m]		[°C]	[s]	[s]	[rad/s]	[N]	[1/min]
	1	2.50E+04	165.43	6.6179	2.7625	Dy_auto	37.03	901.8	26		0.14	1279.8
	2	1.78E+04	134.56	7.5551	2.2469	Dy_auto	37.03	903.8	28		0.14	911.78
	3	1.27E+04	109.26	8.6112	1.8244	Dy_auto	37.04	905.8	30		0.12	649.57
	4	9.04E+03	88.585	9.8001	1.4792	Dy_auto	37.04	907.8	32		0.1	462.76
	5	6.44E+03	71.267	11.066	1.19	Dy_auto	37.05	909.8	34		0.07	329.7
	6	4.59E+03	57.033	12.431	0.95236	Dy_auto	37.05	911.8	36		0.05	234.89
	7	3.27E+03	45.385	13.884	0.75785	Dy_auto	37.05	913.8	38		0.04	167.35
	8	2.33E+03	36.097	15.5	0.60276	Dy_auto	37.05	915.8	40		0.03	119.23
	9	1.66E+03	28.655	17.271	0.47849	Dy_auto	37.05	917.8	42		0.02	84.941
	10	1.18E+03	22.12	18.712	0.36936	Dy_auto	37.05	919.8	44		0.02	60.517
	11	842	16.851	20.009	0.28138	Dy_auto	37.05	921.8	46		0	43.115
	12	600	12.681	21.135	0.21175	Dy_auto	37.04	923.8	48		0	30.717
												
Test:	0.6% MC-PBS new_2 37 °C 20210806_Beyza_MC_buffer_temperature_study 3											
												
Result:	shear rate sweep 1											
												
Interval and data points:	1	12										
Interval data:	Point No.	Shear Rate	Shear Stress	Viscosity	Torque	Status	Temperature	Test Time	Time	Angular Velocity	Normal Force	Rotational Speed
												
		[1/s]	[Pa]	[mPa·s]	[mN·m]		[°C]	[s]	[s]	[rad/s]	[N]	[1/min]
	1	600	13.419	22.369	0.22407	Dy_auto	37	856.1	2		0	30.712
	2	842	17.43	20.7	0.29104	Dy_auto	37	858.1	4		0.02	43.108
	3	1.18E+03	22.594	19.117	0.37728	Dy_auto	37	860.1	6		0.02	60.506
	4	1.66E+03	28.723	17.315	0.47962	Dy_auto	37	862.1	8		0.02	84.927
	5	2.33E+03	36.623	15.728	0.61154	Dy_auto	37	864.1	10		0.03	119.21
	6	3.27E+03	46.408	14.2	0.77493	Dy_auto	37.01	866.1	12		0.04	167.32
	7	4.59E+03	58.476	12.747	0.97646	Dy_auto	37.01	868.1	14		0.06	234.85
	8	6.44E+03	73.218	11.371	1.2226	Dy_auto	37.01	870.1	16		0.08	329.65
	9	9.04E+03	90.772	10.043	1.5157	Dy_auto	37.01	872.1	18		0.11	462.71
	10	1.27E+04	112.07	8.834	1.8714	Dy_auto	37.01	874.1	20		0.13	649.48
	11	1.78E+04	136.74	7.6783	2.2833	Dy_auto	37.02	876.1	22		0.14	911.71
	12	2.50E+04	166.68	6.6678	2.7833	Dy_auto	37.02	878.1	24		0.14	1279.8
												
Interval and data points:	2	12										
Interval data:	Point No.	Shear Rate	Shear Stress	Viscosity	Torque	Status	Temperature	Test Time	Time	Angular Velocity	Normal Force	Rotational Speed
												
		[1/s]	[Pa]	[mPa·s]	[mN·m]		[°C]	[s]	[s]	[rad/s]	[N]	[1/min]
	1	2.50E+04	166.89	6.6763	2.7869	Dy_auto	37.03	880.1	26		0.14	1279.8
	2	1.78E+04	136.15	7.6447	2.2734	Dy_auto	37.04	882.1	28		0.14	911.75
	3	1.27E+04	110.83	8.7353	1.8507	Dy_auto	37.04	884.1	30		0.12	649.54
	4	9.04E+03	89.84	9.9389	1.5002	Dy_auto	37.05	886.1	32		0.1	462.76
	5	6.44E+03	72.405	11.243	1.209	Dy_auto	37.06	888.1	34		0.08	329.7
	6	4.59E+03	58.077	12.658	0.96979	Dy_auto	37.06	890.1	36		0.05	234.89
	7	3.27E+03	46.98	14.372	0.78448	Dy_auto	37.06	892.1	38		0.04	167.35
	8	2.33E+03	37.363	16.044	0.62389	Dy_auto	37.06	894.1	40		0.03	119.22
	9	1.66E+03	29.274	17.643	0.48882	Dy_auto	37.06	896.1	42		0.02	84.943
	10	1.18E+03	22.525	19.055	0.37612	Dy_auto	37.06	898.1	44		0.01	60.517
	11	842	17.285	20.525	0.28863	Dy_auto	37.06	900.1	46		0.01	43.115
	12	600	13.027	21.713	0.21753	Dy_auto	37.06	902.1	48		0	30.717
												
Test:	0.6% MC-PBS new_2 37 °C 20210806_Beyza_MC_buffer_temperature_study 2											
												
Result:	shear rate sweep 1											
												
Interval and data points:	1	12										
Interval data:	Point No.	Shear Rate	Shear Stress	Viscosity	Torque	Status	Temperature	Test Time	Time	Angular Velocity	Normal Force	Rotational Speed
												
		[1/s]	[Pa]	[mPa·s]	[mN·m]		[°C]	[s]	[s]	[rad/s]	[N]	[1/min]
	1	600	11.886	19.814	0.19848	Dy_auto	37.01	895.9	2		0	30.711
	2	842	15.366	18.249	0.25659	Dy_auto	37.01	897.9	4		-0.01	43.107
	3	1.18E+03	19.863	16.806	0.33168	Dy_auto	37.01	899.9	6		0.01	60.506
	4	1.66E+03	25.748	15.521	0.42994	Dy_auto	37.02	901.9	8		0.02	84.926
	5	2.33E+03	32.874	14.118	0.54894	Dy_auto	37.02	903.9	10		0.02	119.2
	6	3.27E+03	42.174	12.904	0.70423	Dy_auto	37.02	905.9	12		0.03	167.32
	7	4.59E+03	53.412	11.643	0.89189	Dy_auto	37.02	907.9	14		0.06	234.85
	8	6.44E+03	67.454	10.476	1.1264	Dy_auto	37.02	909.9	16		0.08	329.65
	9	9.04E+03	84.494	9.3486	1.4109	Dy_auto	37.02	911.9	18		0.1	462.71
	10	1.27E+04	104.93	8.2705	1.7522	Dy_auto	37.02	913.9	20		0.11	649.53
	11	1.78E+04	130.23	7.3129	2.1747	Dy_auto	37.02	915.9	22		0.13	911.71
	12	2.50E+04	161.52	6.4614	2.6971	Dy_auto	37.03	917.9	24		0.13	1279.8
												
Interval and data points:	2	12										
Interval data:	Point No.	Shear Rate	Shear Stress	Viscosity	Torque	Status	Temperature	Test Time	Time	Angular Velocity	Normal Force	Rotational Speed
												
		[1/s]	[Pa]	[mPa·s]	[mN·m]		[°C]	[s]	[s]	[rad/s]	[N]	[1/min]
	1	2.50E+04	162.46	6.4988	2.7128	Dy_auto	37.04	919.9	26		0.13	1279.8
	2	1.78E+04	132.2	7.4228	2.2075	Dy_auto	37.04	921.9	28		0.13	911.78
	3	1.27E+04	107.31	8.4577	1.7919	Dy_auto	37.05	923.9	30		0.11	649.57
	4	9.04E+03	86.817	9.6045	1.4497	Dy_auto	37.05	925.9	32		0.09	462.76
	5	6.44E+03	69.769	10.834	1.165	Dy_auto	37.06	927.9	34		0.07	329.7
	6	4.59E+03	55.708	12.142	0.93023	Dy_auto	37.06	929.9	36		0.04	234.89
	7	3.27E+03	44.122	13.498	0.73676	Dy_auto	37.06	931.9	38		0.02	167.35
	8	2.33E+03	34.718	14.908	0.57972	Dy_auto	37.06	933.9	40		0.02	119.23
	9	1.66E+03	27.118	16.344	0.45282	Dy_auto	37.06	935.9	42		0.01	84.941
	10	1.18E+03	20.969	17.739	0.35015	Dy_auto	37.06	937.9	44		0	60.516
	11	842	15.981	18.976	0.26685	Dy_auto	37.06	939.9	46		0	43.114
	12	600	12.177	20.295	0.20333	Dy_auto	37.06	941.9	48		0.01	30.717
