Projekt:	Methyl-Cellulose in Phosphat buffered Saline 

Versuch:	21.11.16_Zy_0,5%_Methyl-Cellulose_25°_1

Ergebnis:	Scherraten 1000 - 0,1 Rückmessung 1

Abschnitt und Datenpunkte:	1	41
Abschnittsdaten:	Punkt Nr.	Temperatur	Normalkraft	Moment	Drehzahl	Phasenverschiebungswinkel	Auslenkwinkel	Scherrate	Schubspannung	Scherdeformation	Viskosität	Frequenz	Kreisfrequenz	Komplexe Viskosität	Speichermodul	Verlustmodul	Messpunktdauer	Zeit	Gesamtversuchszeit	Uhrzeit	Datum und Uhrzeit Ergebnisbeginn	Spaltabstand
																						
		[°C]	[N]	[mN·m]	[1/min]	[mrad]	[mrad]	[1/s]	[Pa]	[%]	[mPa·s]	[Hz]	[rad/s]	[mPa·s]	[Pa]	[Pa]	[s]	[s]	[h]	[]	[]	[mm]
	1	25,01	0,00	0,39693	906,38		1422497,8	1000	17,456	1,5E+06	17,457						20	20	1,447	13:14:29	16.11.2021 13:14:09	4,230
	2	25,01	0,00	0,32259	719,99		3028193,1	794	14,186	3,19E+06	17,86						20	40	1,452	13:14:49	16.11.2021 13:14:09	4,230
	3	25,00	0,00	0,26133	571,91		4303670,8	631	11,492	4,53E+06	18,214						20	60	1,458	13:15:09	16.11.2021 13:14:09	4,230
	4	25,01	0,00	0,21157	454,28		5316823,7	501	9,304	5,6E+06	18,564						20	80	1,463	13:15:29	16.11.2021 13:14:09	4,230
	5	25,00	0,00	0,17115	360,85		6121599,1	398	7,5266	6,45E+06	18,906						20	100	1,469	13:15:49	16.11.2021 13:14:09	4,230
	6	25,01	-0,01	0,13817	286,63		6760881,8	316	6,0761	7,12E+06	19,214						20	120	1,474	13:16:09	16.11.2021 13:14:09	4,230
	7	25,00	-0,01	0,11143	227,68		7268671,8	251	4,9003	7,66E+06	19,508						20	140	1,48	13:16:29	16.11.2021 13:14:09	4,230
	8	25,01	-0,01	0,089699	180,85		7672039,5	200	3,9447	8,08E+06	19,77						20	160	1,486	13:16:49	16.11.2021 13:14:09	4,230
	9	25,00	-0,01	0,072126	143,66		7992466,3	158	3,1719	8,42E+06	20,013						20	180	1,491	13:17:09	16.11.2021 13:14:09	4,230
	10	25,00	-0,01	0,057913	114,11		8246990,2	126	2,5468	8,69E+06	20,23						20	200	1,497	13:17:29	16.11.2021 13:14:09	4,230
	11	25,00	-0,01	0,046406	90,642		8449165	100	2,0408	8,9E+06	20,408						20	220	1,502	13:17:49	16.11.2021 13:14:09	4,230
	12	25,00	-0,01	0,037133	72		8609757,8	79,4	1,633	9,07E+06	20,558						20	240	1,508	13:18:09	16.11.2021 13:14:09	4,230
	13	25,00	-0,01	0,029653	57,191		8737323,2	63,1	1,304	9,2E+06	20,667						20	260	1,513	13:18:29	16.11.2021 13:14:09	4,230
	14	25,00	-0,01	0,023654	45,429		8838651,3	50,1	1,0402	9,31E+06	20,756						20	280	1,519	13:18:49	16.11.2021 13:14:09	4,230
	15	25,00	-0,01	0,018864	36,085		8919137,6	39,8	0,82957	9,4E+06	20,838						20	300	1,524	13:19:09	16.11.2021 13:14:09	4,230
	16	25,00	-0,01	0,015029	28,663		8983071,2	31,6	0,66092	9,46E+06	20,9						20	320	1,53	13:19:29	16.11.2021 13:14:09	4,230
	17	25,01	-0,01	0,011956	22,768		9033855,4	25,1	0,52579	9,52E+06	20,932						20	340	1,536	13:19:49	16.11.2021 13:14:09	4,230
	18	25,01	-0,01	0,0095128	18,085		9074195,3	20	0,41834	9,56E+06	20,967						20	360	1,541	13:20:09	16.11.2021 13:14:09	4,230
	19	25,01	-0,01	0,0075608	14,366		9106239,2	15,8	0,3325	9,59E+06	20,979						20	380	1,547	13:20:29	16.11.2021 13:14:09	4,230
	20	25,01	-0,01	0,0060116	11,411		9131690,4	12,6	0,26437	9,62E+06	21						20	400	1,552	13:20:49	16.11.2021 13:14:09	4,230
	21	25,01	-0,01	0,0047755	9,0642		9153217,7	10	0,21001	9,64E+06	21,001						21,84	421,8	1,558	13:21:11	16.11.2021 13:14:09	4,230
	22	25,01	-0,01	0,0037981	7,1999		9173124	7,94	0,16703	9,66E+06	21,028						26,03	447,9	1,566	13:21:37	16.11.2021 13:14:09	4,230
	23	25,00	-0,01	0,0030173	5,7191		9191972,6	6,31	0,13269	9,68E+06	21,03						31,03	478,9	1,574	13:22:08	16.11.2021 13:14:09	4,230
	24	25,00	-0,01	0,0023947	4,5429		9209822,2	5,01	0,10531	9,7E+06	21,012						36,99	515,9	1,584	13:22:45	16.11.2021 13:14:09	4,230
	25	25,00	-0,01	0,0018984	3,6085		9226722,6	3,98	0,083487	9,72E+06	20,971						44,1	560	1,597	13:23:29	16.11.2021 13:14:09	4,230
	26	25,00	-0,01	0,0015117	2,8664		9242723,6	3,16	0,066478	9,74E+06	21,022						52,57	612,6	1,611	13:24:22	16.11.2021 13:14:09	4,230
	27	25,00	0,00	0,0011966	2,2768		9257877,9	2,51	0,052623	9,75E+06	20,949						62,67	675,2	1,629	13:25:25	16.11.2021 13:14:09	4,230
	28	25,00	0,00	0,00095024	1,8085		9272227,5	2	0,041789	9,77E+06	20,944						74,72	750	1,649	13:26:39	16.11.2021 13:14:09	4,230
	29	25,00	0,00	0,00075486	1,4366		9285815,4	1,58	0,033196	9,78E+06	20,946						89,07	839	1,674	13:28:08	16.11.2021 13:14:09	4,230
	30	25,01	0,00	0,00059826	1,1411		9298682,6	1,26	0,02631	9,8E+06	20,899						106,2	945,2	1,704	13:29:55	16.11.2021 13:14:09	4,230
	31	25,00	0,00	0,00047392	0,90642		9310863,2	1	0,020842	9,81E+06	20,842						126,6	1072	1,739	13:32:01	16.11.2021 13:14:09	4,230
	32	25,00	0,00	0,00037648	0,71999		9322400,3	0,794	0,016556	9,82E+06	20,843						150,9	1223	1,781	13:34:32	16.11.2021 13:14:09	4,230
	33	25,00	-0,01	0,00029925	0,57191		9333324,2	0,631	0,01316	9,83E+06	20,857						179,9	1403	1,831	13:37:32	16.11.2021 13:14:09	4,230
	34	25,00	-0,01	0,00023377	0,45429		9343670,8	0,501	0,01028	9,84E+06	20,512						214,4	1617	1,89	13:41:06	16.11.2021 13:14:09	4,230
	35	25,00	-0,01	0,00018793	0,36085		9353465,8	0,398	0,0082643	9,85E+06	20,759						255,6	1873	1,961	13:45:22	16.11.2021 13:14:09	4,230
	36	25,01	-0,01	0,00014669	0,28664		9362741,2	0,316	0,0064511	9,86E+06	20,4						304,8	2177	2,046	13:50:27	16.11.2021 13:14:09	4,230
	37	25,01	-0,01	0,00011806	0,22768		9371526,3	0,251	0,0051918	9,87E+06	20,669						363,3	2541	2,147	13:56:30	16.11.2021 13:14:09	4,230
	38	25,00	-0,01	8,9352E-05	0,18085		9379842,7	0,2	0,0039294	9,88E+06	19,694						433,1	2974	2,267	14:03:43	16.11.2021 13:14:09	4,230
	39	25,00	-0,01	6,8172E-05	0,14366		9387719,7	0,158	0,002998	9,89E+06	18,916						516,3	3490	2,411	14:12:20	16.11.2021 13:14:09	4,230
	40	25,00	-0,01	5,6056E-05	0,11411		9395177,7	0,126	0,0024652	9,9E+06	19,582						615,5	4106	2,582	14:22:35	16.11.2021 13:14:09	4,230
	41	25,01	-0,01	4,5849E-05	0,090642		9401798,8	0,1	0,0020163	9,9E+06	20,163						672	4778	2,768	14:33:47	16.11.2021 13:14:09	4,230

Versuch:	21.12.16_Zy_0,84%_Methyl-Cellulose_25°_1

Ergebnis:	Scherraten 1000 - 0,1 Rückmessung 1

Abschnitt und Datenpunkte:	1	41
Abschnittsdaten:	Punkt Nr.	Temperatur	Normalkraft	Moment	Drehzahl	Phasenverschiebungswinkel	Auslenkwinkel	Scherrate	Schubspannung	Scherdeformation	Viskosität	Frequenz	Kreisfrequenz	Komplexe Viskosität	Speichermodul	Verlustmodul	Messpunktdauer	Zeit	Gesamtversuchszeit	Uhrzeit	Datum und Uhrzeit Ergebnisbeginn	Spaltabstand
																						
		[°C]	[N]	[mN·m]	[1/min]	[mrad]	[mrad]	[1/s]	[Pa]	[%]	[mPa·s]	[Hz]	[rad/s]	[mPa·s]	[Pa]	[Pa]	[s]	[s]	[h]	[]	[]	[mm]
	1	25,01	-0,01	1,0539	906,38		1421756,4	1000	46,348	1,5E+06	46,35						20	20	1,481	10:46:58	16.12.2021 10:46:38	4,230
	2	25,01	-0,01	0,89461	719,99		3027499,5	794	39,342	3,19E+06	49,529						20	40	1,487	10:47:18	16.12.2021 10:46:38	4,230
	3	25,01	-0,01	0,75808	571,91		4303018	631	33,338	4,53E+06	52,837						20	60	1,492	10:47:38	16.12.2021 10:46:38	4,230
	4	25,01	-0,01	0,64089	454,29		5316206,5	501	28,184	5,6E+06	56,235						20	80	1,498	10:47:58	16.12.2021 10:46:38	4,230
	5	25,01	-0,02	0,53998	360,85		6121012,6	398	23,747	6,45E+06	59,648						20	100	1,504	10:48:18	16.12.2021 10:46:38	4,230
	6	25,01	-0,02	0,45308	286,63		6760299,3	316	19,925	7,12E+06	63,009						20	120	1,509	10:48:38	16.12.2021 10:46:38	4,230
	7	25,01	-0,02	0,37844	227,68		7268113,7	251	16,643	7,66E+06	66,256						20	140	1,515	10:48:58	16.12.2021 10:46:38	4,230
	8	25,00	-0,02	0,31459	180,85		7671545,4	200	13,835	8,08E+06	69,338						20	160	1,52	10:49:18	16.12.2021 10:46:38	4,230
	9	25,00	-0,02	0,26045	143,66		7991965,8	158	11,454	8,42E+06	72,269						20	180	1,526	10:49:38	16.12.2021 10:46:38	4,230
	10	25,00	-0,02	0,21495	114,11		8246500	126	9,4527	8,69E+06	75,085						20	200	1,531	10:49:58	16.12.2021 10:46:38	4,230
	11	25,01	-0,02	0,17639	90,642		8448685,5	100	7,757	8,9E+06	77,57						20	220	1,537	10:50:18	16.12.2021 10:46:38	4,230
	12	25,01	-0,02	0,14388	72		8609283,2	79,4	6,3275	9,07E+06	79,658						20	240	1,542	10:50:38	16.12.2021 10:46:38	4,230
	13	25,01	-0,02	0,11686	57,191		8736851,5	63,1	5,1392	9,2E+06	81,451						20	260	1,548	10:50:58	16.12.2021 10:46:38	4,230
	14	25,01	-0,02	0,094643	45,429		8838183,5	50,1	4,1621	9,31E+06	83,045						20	280	1,554	10:51:18	16.12.2021 10:46:38	4,230
	15	25,01	-0,02	0,076407	36,085		8918673,8	39,8	3,3601	9,4E+06	84,403						20	300	1,559	10:51:38	16.12.2021 10:46:38	4,230
	16	25,01	-0,02	0,061505	28,663		8982608,3	31,6	2,7048	9,46E+06	85,533						20	320	1,565	10:51:58	16.12.2021 10:46:38	4,230
	17	25,01	-0,02	0,049391	22,768		9033394,5	25,1	2,1721	9,52E+06	86,471						20	340	1,57	10:52:18	16.12.2021 10:46:38	4,230
	18	25,01	-0,02	0,03956	18,085		9073738,2	20	1,7397	9,56E+06	87,193						20	360	1,576	10:52:38	16.12.2021 10:46:38	4,230
	19	25,01	-0,02	0,031635	14,366		9105780,2	15,8	1,3912	9,59E+06	87,78						20	380	1,581	10:52:58	16.12.2021 10:46:38	4,230
	20	25,01	-0,02	0,02525	11,411		9131232,4	12,6	1,1104	9,62E+06	88,203						20	400	1,587	10:53:18	16.12.2021 10:46:38	4,230
	21	25,01	-0,02	0,020137	9,0642		9152759,7	10	0,88554	9,64E+06	88,554						21,84	421,8	1,593	10:53:40	16.12.2021 10:46:38	4,230
	22	25,01	-0,02	0,016038	7,1999		9172666,9	7,94	0,7053	9,66E+06	88,792						26,03	447,9	1,6	10:54:06	16.12.2021 10:46:38	4,230
	23	25,01	-0,02	0,012763	5,7191		9191515,6	6,31	0,56128	9,68E+06	88,956						31,03	478,9	1,609	10:54:37	16.12.2021 10:46:38	4,230
	24	25,01	-0,02	0,010151	4,5429		9209366,2	5,01	0,44639	9,7E+06	89,066						36,99	515,9	1,619	10:55:14	16.12.2021 10:46:38	4,230
	25	25,01	-0,02	0,008065	3,6085		9226265,6	3,98	0,35467	9,72E+06	89,09						44,1	560	1,631	10:55:58	16.12.2021 10:46:38	4,230
	26	25,01	-0,02	0,0064099	2,8664		9242267,5	3,16	0,28189	9,74E+06	89,14						52,57	612,6	1,646	10:56:51	16.12.2021 10:46:38	4,230
	27	25,00	-0,02	0,0050899	2,2768		9257421,8	2,51	0,22384	9,75E+06	89,112						62,67	675,2	1,663	10:57:53	16.12.2021 10:46:38	4,230
	28	25,00	-0,02	0,0040439	1,8085		9271771,4	2	0,17784	9,77E+06	89,13						74,72	750	1,684	10:59:08	16.12.2021 10:46:38	4,230
	29	25,01	-0,02	0,0032096	1,4366		9285358,3	1,58	0,14115	9,78E+06	89,058						89,07	839	1,709	11:00:37	16.12.2021 10:46:38	4,230
	30	25,01	-0,02	0,0025476	1,1411		9298225,5	1,26	0,11204	9,8E+06	88,993						106,2	945,2	1,738	11:02:23	16.12.2021 10:46:38	4,230
	31	25,01	-0,02	0,0020211	0,90642		9310408,2	1	0,088883	9,81E+06	88,883						126,6	1072	1,773	11:04:30	16.12.2021 10:46:38	4,230
	32	25,01	-0,02	0,0016029	0,71999		9321943,3	0,794	0,070492	9,82E+06	88,744						150,9	1223	1,815	11:07:01	16.12.2021 10:46:38	4,230
	33	25,01	-0,02	0,0012726	0,57191		9332870,1	0,631	0,055966	9,83E+06	88,7						179,9	1403	1,865	11:10:01	16.12.2021 10:46:38	4,230
	34	25,00	-0,02	0,0010086	0,45429		9343215,8	0,501	0,044354	9,84E+06	88,498						214,4	1617	1,925	11:13:35	16.12.2021 10:46:38	4,230
	35	25,01	-0,02	0,00079776	0,36085		9353008,7	0,398	0,035083	9,85E+06	88,124						255,6	1873	1,996	11:17:51	16.12.2021 10:46:38	4,230
	36	25,01	-0,02	0,00063372	0,28664		9362285,1	0,316	0,027869	9,86E+06	88,129						304,8	2177	2,081	11:22:56	16.12.2021 10:46:38	4,230
	37	25,00	-0,02	0,00050189	0,22768		9371070,3	0,251	0,022071	9,87E+06	87,867						363,3	2541	2,182	11:28:59	16.12.2021 10:46:38	4,230
	38	25,01	-0,02	0,00039212	0,18085		9379388,6	0,2	0,017244	9,88E+06	86,427						433,1	2974	2,302	11:36:12	16.12.2021 10:46:38	4,230
	39	25,01	-0,02	0,00031365	0,14366		9387264,6	0,158	0,013793	9,89E+06	87,03						516,3	3490	2,445	11:44:48	16.12.2021 10:46:38	4,230
	40	25,01	-0,03	0,00025212	0,11411		9394719,7	0,126	0,011087	9,9E+06	88,071						615,5	4106	2,616	11:55:04	16.12.2021 10:46:38	4,230
	41	25,00	-0,03	0,00020116	0,090642		9401343,7	0,1	0,0088464	9,9E+06	88,464						672	4778	2,803	12:06:16	16.12.2021 10:46:38	4,230

Versuch:	21.12.16_Zy_0,6%_Methyl-Cellulose_25°_1

Ergebnis:	Scherraten 1000 - 0,1 Rückmessung 1

Abschnitt und Datenpunkte:	1	41
Abschnittsdaten:	Punkt Nr.	Temperatur	Normalkraft	Moment	Drehzahl	Phasenverschiebungswinkel	Auslenkwinkel	Scherrate	Schubspannung	Scherdeformation	Viskosität	Frequenz	Kreisfrequenz	Komplexe Viskosität	Speichermodul	Verlustmodul	Messpunktdauer	Zeit	Gesamtversuchszeit	Uhrzeit	Datum und Uhrzeit Ergebnisbeginn	Spaltabstand
																						
		[°C]	[N]	[mN·m]	[1/min]	[mrad]	[mrad]	[1/s]	[Pa]	[%]	[mPa·s]	[Hz]	[rad/s]	[mPa·s]	[Pa]	[Pa]	[s]	[s]	[h]	[]	[]	[mm]
	1	25,00	0,00	0,57123	906,38		1422551,5	1000	25,121	1,5E+06	25,122						20	20	1,469	15:01:21	16.12.2021 15:01:01	4,230
	2	25,00	0,00	0,47169	719,99		3028240,2	794	20,743	3,19E+06	26,115						20	40	1,474	15:01:41	16.12.2021 15:01:01	4,230
	3	25,00	0,00	0,38848	571,91		4303713,3	631	17,084	4,53E+06	27,077						20	60	1,48	15:02:01	16.12.2021 15:01:01	4,230
	4	25,00	0,00	0,31948	454,29		5316862,7	501	14,05	5,6E+06	28,033						20	80	1,485	15:02:21	16.12.2021 15:01:01	4,230
	5	25,00	-0,01	0,26233	360,85		6121637,2	398	11,537	6,45E+06	28,979						20	100	1,491	15:02:41	16.12.2021 15:01:01	4,230
	6	25,00	-0,01	0,21489	286,64		6760890,1	316	9,45	7,12E+06	29,883						20	120	1,496	15:03:01	16.12.2021 15:01:01	4,230
	7	25,00	-0,01	0,17558	227,68		7268683,5	251	7,7215	7,66E+06	30,74						20	140	1,502	15:03:21	16.12.2021 15:01:01	4,230
	8	25,00	-0,01	0,14301	180,85		7672075,6	200	6,289	8,08E+06	31,52						20	160	1,507	15:03:41	16.12.2021 15:01:01	4,230
	9	25,00	-0,01	0,11615	143,66		7992500,4	158	5,1078	8,42E+06	32,228						20	180	1,513	15:04:01	16.12.2021 15:01:01	4,230
	10	25,00	-0,01	0,094153	114,11		8247026,3	126	4,1406	8,69E+06	32,89						20	200	1,519	15:04:21	16.12.2021 15:01:01	4,230
	11	25,00	-0,01	0,075966	90,642		8449201,1	100	3,3407	8,9E+06	33,407						20	220	1,524	15:04:41	16.12.2021 15:01:01	4,230
	12	25,00	-0,01	0,061123	72		8609795,8	79,4	2,688	9,07E+06	33,84						20	240	1,53	15:05:01	16.12.2021 15:01:01	4,230
	13	25,00	-0,01	0,049051	57,191		8737359,3	63,1	2,1571	9,2E+06	34,188						20	260	1,535	15:05:21	16.12.2021 15:01:01	4,230
	14	25,00	-0,01	0,039281	45,429		8838687,5	50,1	1,7275	9,31E+06	34,467						20	280	1,541	15:05:41	16.12.2021 15:01:01	4,230
	15	25,00	-0,01	0,031417	36,085		8919175,7	39,8	1,3816	9,4E+06	34,704						20	300	1,546	15:06:01	16.12.2021 15:01:01	4,230
	16	25,00	-0,01	0,025088	28,663		8983109,3	31,6	1,1033	9,46E+06	34,889						20	320	1,552	15:06:21	16.12.2021 15:01:01	4,230
	17	25,00	-0,01	0,020002	22,768		9033891,6	25,1	0,8796	9,52E+06	35,018						20	340	1,557	15:06:41	16.12.2021 15:01:01	4,230
	18	25,00	-0,01	0,015935	18,085		9074234,3	20	0,70078	9,56E+06	35,122						20	360	1,563	15:07:01	16.12.2021 15:01:01	4,230
	19	25,00	-0,01	0,012684	14,366		9106274,4	15,8	0,55782	9,59E+06	35,196						20	380	1,569	15:07:21	16.12.2021 15:01:01	4,230
	20	25,00	-0,01	0,010091	11,411		9131727,5	12,6	0,44378	9,62E+06	35,25						20	400	1,574	15:07:41	16.12.2021 15:01:01	4,230
	21	25,00	-0,01	0,0080233	9,0642		9153254,8	10	0,35284	9,64E+06	35,284						21,84	421,8	1,58	15:08:02	16.12.2021 15:01:01	4,230
	22	25,00	-0,01	0,0063818	7,1999		9173162,1	7,94	0,28065	9,66E+06	35,332						26,03	447,9	1,587	15:08:28	16.12.2021 15:01:01	4,230
	23	25,00	-0,01	0,0050728	5,7191		9192010,7	6,31	0,22309	9,68E+06	35,357						31,03	478,9	1,596	15:08:59	16.12.2021 15:01:01	4,230
	24	25,00	0,00	0,0040286	4,5429		9209858,3	5,01	0,17717	9,7E+06	35,349						36,99	515,9	1,606	15:09:36	16.12.2021 15:01:01	4,230
	25	25,00	0,00	0,0031972	3,6085		9226757,8	3,98	0,1406	9,72E+06	35,318						44,1	560	1,619	15:10:21	16.12.2021 15:01:01	4,230
	26	25,00	0,00	0,0025449	2,8664		9242761,7	3,16	0,11192	9,74E+06	35,392						52,57	612,6	1,633	15:11:13	16.12.2021 15:01:01	4,230
	27	25,00	0,00	0,002017	2,2768		9257916	2,51	0,088702	9,75E+06	35,313						62,67	675,2	1,651	15:12:16	16.12.2021 15:01:01	4,230
	28	25,00	0,00	0,0016036	1,8085		9272263,6	2	0,070522	9,77E+06	35,345						74,72	750	1,671	15:13:31	16.12.2021 15:01:01	4,230
	29	25,00	0,00	0,0012746	1,4366		9285850,5	1,58	0,056053	9,78E+06	35,367						89,07	839	1,696	15:15:00	16.12.2021 15:01:01	4,230
	30	25,00	0,00	0,0010113	1,1411		9298717,7	1,26	0,044475	9,8E+06	35,328						106,2	945,2	1,726	15:16:46	16.12.2021 15:01:01	4,230
	31	25,00	0,00	0,00080234	0,90642		9310902,3	1	0,035284	9,81E+06	35,284						126,6	1072	1,761	15:18:52	16.12.2021 15:01:01	4,230
	32	25,00	0,00	0,00063744	0,71999		9322437,5	0,794	0,028033	9,82E+06	35,291						150,9	1223	1,803	15:21:23	16.12.2021 15:01:01	4,230
	33	25,00	0,00	0,00050788	0,57191		9333363,2	0,631	0,022335	9,83E+06	35,398						179,9	1403	1,853	15:24:23	16.12.2021 15:01:01	4,230
	34	25,00	0,00	0,00039894	0,45429		9343708	0,501	0,017544	9,84E+06	35,005						214,4	1617	1,912	15:27:58	16.12.2021 15:01:01	4,230
	35	25,00	-0,01	0,00032007	0,36085		9353503,9	0,398	0,014076	9,85E+06	35,357						255,6	1873	1,983	15:32:13	16.12.2021 15:01:01	4,230
	36	25,00	-0,01	0,00024921	0,28664		9362778,3	0,316	0,010959	9,86E+06	34,656						304,8	2177	2,068	15:37:18	16.12.2021 15:01:01	4,230
	37	25,00	0,00	0,00020443	0,22768		9371563,4	0,251	0,0089904	9,87E+06	35,791						363,3	2541	2,169	15:43:21	16.12.2021 15:01:01	4,230
	38	25,00	0,00	0,00015428	0,18085		9379880,8	0,2	0,0067846	9,88E+06	34,004						433,1	2974	2,289	15:50:34	16.12.2021 15:01:01	4,230
	39	25,00	0,00	0,00012054	0,14366		9387757,8	0,158	0,0053007	9,89E+06	33,445						516,3	3490	2,432	15:59:11	16.12.2021 15:01:01	4,230
	40	25,00	-0,01	0,00010136	0,11411		9395213,8	0,126	0,0044574	9,9E+06	35,406						615,5	4106	2,603	16:09:26	16.12.2021 15:01:01	4,230
	41	25,00	0,00	8,3128E-05	0,090642		9401834,9	0,1	0,0036557	9,91E+06	36,557						672	4778	2,79	16:20:38	16.12.2021 15:01:01	4,230
